…
randomly_walk <- function(.ix = c(), n_steps = 100) {
  results <- numeric(n_steps)
  for (i in 1:(n_steps-1)) {
    results[i + 1] <- results[i] + rnorm(1, 0, 1)
  }
  
  return(results)
}

(
  random_walk <- randomly_walk() %>%
    tibble(position = .)
)

## # A tibble: 100 x 1
##    position
##       <dbl>
##  1   0     
##  2  -1.12  
##  3  -0.900 
##  4  -0.947 
##  5  -0.0902
##  6  -1.09  
##  7  -3.88  
##  8  -4.54  
##  9  -4.21  
## 10  -3.50  
## # … with 90 more rows
…
Much better! After \(10,000\) iterations, we’re spending almost the exact proportion of time on each island that we want to be, as evidenced by the tiny error margins. In addition, the standard deviation of the error margins is 0.02072, which is tiny. That’s awesome! But what about if the system is more complex? Like, what if we had 100 islands?

more_islands <- run_rwmh(n_iters = 10000, island_populations = 1:100) %>%
  tibble(island = .) %>%
  group_by(island) %>%
  summarize(days_spent = n(), .groups = 'drop') %>%
  mutate(day_proportion = days_spent / sum(days_spent),
         error_margin = day_proportion / (island / sum(island)) - 1)

mean_error_margin <- mean(more_islands$error_margin)
sd_error_margin <- sd(more_islands$error_margin)
more_islands

## # A tibble: 100 x 4
##    island days_spent day_proportion error_margin
##     <dbl>      <int>          <dbl>        <dbl>
##  1      1          3       0.000300       0.515 
##  2      2          5       0.0005         0.262 
##  3      3          5       0.0005        -0.158 
##  4      4          7       0.0007        -0.116 
##  5      5          9       0.0009        -0.091 
##  6      6         10       0.001         -0.158 
##  7      7         12       0.00120       -0.134 
##  8      8         13       0.0013        -0.179 
##  9      9         19       0.0019         0.0661
## 10     10         13       0.0013        -0.344 
## # … with 90 more rows

No problem! Even with the extra islands, the mean error margin is still zero, and the standard deviation of the error margins is 0.16051, which is also small, but not as small as the simpler system. It’s true that a more complex system (i.e. more islands) would mean that we need more iterations to converge in probability to the proportions we’re shooting for, but the algorithm will still work with enough time. Let’s try running it one more time on the complex system, but this time with a million iterations.

more_iters <- run_rwmh(n_iters = 1000000, island_populations = 1:100) %>%
  tibble(island = .) %>%
  group_by(island) %>%
  summarize(days_spent = n(), .groups = 'drop') %>%
  mutate(day_proportion = days_spent / sum(days_spent),
         error_margin = day_proportion / (island / sum(island)) - 1)

mean_error_margin <- mean(more_iters$error_margin)
sd_error_margin <- sd(more_iters$error_margin)
more_iters

## # A tibble: 100 x 4
##    island days_spent day_proportion error_margin
##     <dbl>      <int>          <dbl>        <dbl>
##  1      1        178       0.000178     -0.101  
##  2      2        415       0.000415      0.0479 
##  3      3        617       0.000617      0.0386 
##  4      4        773       0.000773     -0.0241 
##  5      5        965       0.000965     -0.0253 
##  6      6       1156       0.00116      -0.0270 
##  7      7       1429       0.00143       0.0309 
##  8      8       1582       0.00158      -0.00136
##  9      9       1726       0.00173      -0.0315 
## 10     10       1954       0.00195      -0.0132 
## # … with 90 more rows
…
