…
randomly_walk <- function(.ix = c(), n_steps = 100) {
  results <- numeric(n_steps)
  for (i in 1:(n_steps-1)) {
    results[i + 1] <- results[i] + rnorm(1, 0, 1)
  }
  
  return(results)
}

(
  random_walk <- randomly_walk() %>%
    tibble(position = .)
)

## # A tibble: 100 x 1
##    position
##       <dbl>
##  1    0    
##  2   -0.806
##  3    0.395
##  4    1.25 
##  5    0.848
##  6   -0.505
##  7   -0.198
##  8   -1.37 
##  9   -2.18 
## 10   -2.76 
## # … with 90 more rows
…
Much better! After \(10,000\) iterations, we’re spending almost the exact proportion of time on each island that we want to be, as evidenced by the tiny error margins. In addition, the standard deviation of the error margins is 0.00191, which is tiny. That’s awesome! But what about if the system is more complex? Like, what if we had 100 islands?

more_islands <- run_rwmh(n_iters = 10000, island_populations = 1:100) %>%
  tibble(island = .) %>%
  group_by(island) %>%
  summarize(days_spent = n(), .groups = 'drop') %>%
  mutate(day_proportion = days_spent / sum(days_spent),
         error_margin = day_proportion - island / sum(island))

mean_error_margin <- mean(more_islands$error_margin)
sd_error_margin <- sd(more_islands$error_margin)
more_islands

## # A tibble: 100 x 4
##    island days_spent day_proportion error_margin
##     <dbl>      <int>          <dbl>        <dbl>
##  1      1          1       0.000100   -0.0000980
##  2      2          5       0.000500    0.000104 
##  3      3          7       0.000700    0.000106 
##  4      4          7       0.000700   -0.0000921
##  5      5         11       0.00110     0.000110 
##  6      6         16       0.00160     0.000412 
##  7      7         10       0.00100    -0.000386 
##  8      8         18       0.00180     0.000216 
##  9      9         15       0.00150    -0.000282 
## 10     10         16       0.00160    -0.000380 
## # … with 90 more rows
…
