A Gentle Introduction to Markov Chains and MCMC - Musings
…
 2
 3
 4
 5
 6
 7
 8
 9
10
11
12
13
14

## # A tibble: 100 x 1
##    position
##       <dbl>
##  1    0    
##  2    0.812
##  3    1.17 
##  4    0.981
##  5    1.70 
##  6    2.36 
##  7    3.00 
##  8    2.32 
##  9    3.13 
## 10    4.23 
## # … with 90 more rows
…
 2
 3
 4
 5
 6
 7
 8
 9
10
11
12
13
14

## # A tibble: 100 x 4
##    island days_spent day_proportion error_margin
##     <dbl>      <int>          <dbl>        <dbl>
##  1      1          3       0.000300       0.515 
##  2      2          7       0.0007         0.767 
##  3      3          4       0.0004        -0.327 
##  4      4          7       0.0007        -0.116 
##  5      5         12       0.00120        0.212 
##  6      6         11       0.0011        -0.0742
##  7      7         14       0.0014         0.01  
##  8      8         10       0.001         -0.369 
##  9      9         24       0.00240        0.347 
## 10     10         25       0.0025         0.262 
## # … with 90 more rows
…
 2
 3
 4
 5
 6
 7
 8
 9
10
11
12
13
14

## # A tibble: 100 x 4
##    island days_spent day_proportion error_margin
##     <dbl>      <int>          <dbl>        <dbl>
##  1      1        207       0.000207      0.0453 
##  2      2        411       0.000411      0.0378 
##  3      3        609       0.000609      0.0252 
##  4      4        809       0.000809      0.0214 
##  5      5       1017       0.00102       0.0272 
##  6      6       1194       0.00119       0.00495
##  7      7       1427       0.00143       0.0295 
##  8      8       1616       0.00162       0.0201 
##  9      9       1769       0.00177      -0.00739
## 10     10       1986       0.00199       0.00293
## # … with 90 more rows
…
