Why I Write R, and Why You Should Too - Musings
…
 3
 4
 5
 6
 7
 8
 9
10
11
12
13
14
15

## # A tibble: 60 x 5
## # Groups:   year [12]
##     year continent lifeExp worldwideLifeExp relativeToAvg
##    <int> <fct>       <dbl>            <dbl>         <dbl>
##  1  1952 Africa       39.1             54.5       -15.3  
##  2  1952 Americas     53.3             54.5        -1.20 
##  3  1952 Asia         46.3             54.5        -8.16 
##  4  1952 Europe       64.4             54.5         9.93 
##  5  1952 Oceania      69.3             54.5        14.8  
##  6  1957 Africa       41.3             56.7       -15.4  
##  7  1957 Americas     56.0             56.7        -0.748
##  8  1957 Asia         49.3             56.7        -7.39 
##  9  1957 Europe       66.7             56.7         9.99 
## 10  1957 Oceania      70.3             56.7        13.6  
## # … with 50 more rows
…
